# Blender MTL File: 'spceslider.blend'
# Material Count: 2

newmtl Material
Ns 96.078431
Ka 0.000000 0.000000 0.000000
Kd 0.640000 0.238086 0.164425
Ks 0.500000 0.500000 0.500000
Ni 1.000000
d 1.000000
illum 2

newmtl Material.001
Ns 96.078431
Ka 0.000000 0.000000 0.000000
Kd 0.165805 0.640000 0.167831
Ks 0.500000 0.500000 0.500000
Ni 1.000000
d 1.000000
illum 2
