xof 0303txt 0032

Frame Root {
  FrameTransformMatrix {
     1.000000, 0.000000, 0.000000, 0.000000,
     0.000000,-0.000000, 1.000000, 0.000000,
     0.000000, 1.000000, 0.000000, 0.000000,
     0.000000, 0.000000, 0.000000, 1.000000;;
  }
  Frame Cube {
    FrameTransformMatrix {
       0.010000, 0.000000, 0.000000, 0.000000,
       0.000000, 0.010000, 0.000000, 0.000000,
       0.000000, 0.000000, 0.010000, 0.000000,
       0.000000, 0.000000, 0.000000, 1.000000;;
    }
    Mesh { // Cube mesh
      66;
      99.999992;-200.000000;-10.000002;,
      -100.000015;-199.999954;-10.000002;,
      99.999931;-200.000122;10.000002;,
      -100.000038;-199.999924;10.000002;,
      79.999992;-200.000000;-10.000002;,
      -80.000015;-199.999954;-10.000002;,
      79.999939;-200.000122;10.000002;,
      -80.000031;-199.999924;10.000002;,
      79.999969;-220.000000;-10.000050;,
      -80.000038;-219.999954;-10.000050;,
      79.999924;-220.000122; 9.999954;,
      -80.000046;-219.999939; 9.999954;,
      63.999969;-220.000000;-10.000050;,
      -64.000038;-219.999954;-10.000050;,
      63.999931;-220.000122; 9.999954;,
      -64.000053;-219.999939; 9.999954;,
      63.999950;-240.000015;-10.000097;,
      -64.000061;-239.999969;-10.000097;,
      63.999916;-240.000122; 9.999907;,
      -64.000069;-239.999939; 9.999907;,
      38.399948;-240.000015;-10.000097;,
      -38.400063;-239.999969;-10.000097;,
      38.399925;-240.000122; 9.999907;,
      -38.400070;-239.999939; 9.999907;,
      38.399918;-260.000000;-10.000145;,
      -38.400093;-259.999969;-10.000145;,
      38.399895;-260.000122; 9.999859;,
      -38.400097;-259.999939; 9.999859;,
      99.999992; 0.000000;-10.000002;,
      99.999992;200.000000;-10.000002;,
      -100.000015;199.999954;-10.000002;,
      -99.999962;-0.000072;-10.000002;,
      100.000046; 0.000095;10.000002;,
      99.999931;200.000122;10.000002;,
      -100.000038;199.999924;10.000002;,
      -99.999992; 0.000000;10.000002;,
      79.999992;200.000000;-10.000002;,
      -80.000015;199.999954;-10.000002;,
      79.999939;200.000122;10.000002;,
      -80.000031;199.999924;10.000002;,
      79.999969;220.000000;-10.000050;,
      -80.000038;219.999954;-10.000050;,
      79.999924;220.000122; 9.999954;,
      -80.000046;219.999939; 9.999954;,
      63.999969;220.000000;-10.000050;,
      -64.000038;219.999954;-10.000050;,
      63.999931;220.000122; 9.999954;,
      -64.000053;219.999939; 9.999954;,
      63.999950;240.000015;-10.000097;,
      -64.000061;239.999969;-10.000097;,
      63.999916;240.000122; 9.999907;,
      -64.000069;239.999939; 9.999907;,
      38.399948;240.000015;-10.000097;,
      -38.400063;239.999969;-10.000097;,
      38.399925;240.000122; 9.999907;,
      -38.400070;239.999939; 9.999907;,
      38.399918;260.000000;-10.000145;,
      -38.400093;259.999969;-10.000145;,
      38.399895;260.000122; 9.999859;,
      -38.400097;259.999939; 9.999859;,
      89.999947;-180.000122;10.000002;,
      -90.000038;-179.999939;10.000002;,
      90.000046; 0.000087;10.000002;,
      89.999947;180.000107;10.000002;,
      -90.000038;179.999954;10.000002;,
      -90.000000; 0.000002;10.000002;;
      65;
      4;31,1,0,28;,
      4;63,64,34,33;,
      4;0,2,32,28;,
      4;6,7,3,2;,
      4;31,35,3,1;,
      4;10,11,7,6;,
      4;7,5,1,3;,
      4;4,6,2,0;,
      4;5,4,0,1;,
      4;14,15,11,10;,
      4;11,9,5,7;,
      4;8,10,6,4;,
      4;9,8,4,5;,
      4;18,19,15,14;,
      4;15,13,9,11;,
      4;12,14,10,8;,
      4;13,12,8,9;,
      4;22,23,19,18;,
      4;19,17,13,15;,
      4;16,18,14,12;,
      4;17,16,12,13;,
      4;26,27,23,22;,
      4;23,21,17,19;,
      4;20,22,18,16;,
      4;21,20,16,17;,
      4;25,27,26,24;,
      4;27,25,21,23;,
      4;24,26,22,20;,
      4;25,24,20,21;,
      4;29,30,31,28;,
      4;64,65,35,34;,
      4;32,33,29,28;,
      4;34,39,38,33;,
      4;34,35,31,30;,
      4;28,31,35,32;,
      4;39,43,42,38;,
      4;30,37,39,34;,
      4;33,38,36,29;,
      4;29,36,37,30;,
      4;43,47,46,42;,
      4;37,41,43,39;,
      4;38,42,40,36;,
      4;36,40,41,37;,
      4;47,51,50,46;,
      4;41,45,47,43;,
      4;42,46,44,40;,
      4;40,44,45,41;,
      4;51,55,54,50;,
      4;45,49,51,47;,
      4;46,50,48,44;,
      4;44,48,49,45;,
      4;55,59,58,54;,
      4;49,53,55,51;,
      4;50,54,52,48;,
      4;48,52,53,49;,
      4;58,59,57,56;,
      4;53,57,59,55;,
      4;54,58,56,52;,
      4;52,56,57,53;,
      4;60,61,65,62;,
      4;65,64,63,62;,
      4;62,63,33,32;,
      4;65,61,3,35;,
      4;61,60,2,3;,
      4;60,62,32,2;;
      MeshNormals { // Cube normals
        65;
         0.000000; 0.000000;-1.000000;,
         0.000000;-0.000000; 1.000000;,
         1.000000;-0.000000; 0.000000;,
         0.000000; 0.000000; 0.000000;,
        -1.000000; 0.000000;-0.000001;,
        -0.000000;-0.000002; 1.000000;,
         0.000000;-1.000000; 0.000002;,
         0.000000;-1.000000;-0.000006;,
         0.000000; 0.000000; 0.000000;,
         0.000000; 0.000000; 0.000000;,
        -1.000000; 0.000001;-0.000001;,
         1.000000;-0.000001; 0.000002;,
         0.000000; 0.000002;-1.000000;,
        -0.000000;-0.000002; 1.000000;,
         0.000000;-1.000000; 0.000001;,
         0.000000;-1.000000;-0.000006;,
         0.000000; 0.000000; 0.000000;,
        -0.000000;-0.000000;-1.000000;,
        -1.000000; 0.000001;-0.000001;,
         1.000000;-0.000001; 0.000002;,
         0.000000; 0.000002;-1.000000;,
        -0.000000;-0.000002; 1.000000;,
         0.000000;-1.000000; 0.000002;,
         0.000000;-1.000000;-0.000005;,
         0.000000; 0.000000; 0.000000;,
        -0.000001;-1.000000;-0.000002;,
        -1.000000; 0.000001;-0.000000;,
         1.000000;-0.000002; 0.000001;,
         0.000000; 0.000002;-1.000000;,
         0.000000;-0.000000;-1.000000;,
         0.000000; 0.000000; 1.000000;,
         1.000000; 0.000000; 0.000000;,
         0.000000; 0.000000; 0.000000;,
        -1.000000;-0.000000;-0.000001;,
         0.000000;-1.000000; 0.000004;,
        -0.000000; 0.000002; 1.000000;,
         0.000000; 1.000000; 0.000002;,
         0.000000; 1.000000;-0.000006;,
         0.000000; 0.000000; 0.000000;,
         0.000000; 0.000000; 0.000000;,
        -1.000000;-0.000001;-0.000001;,
         1.000000; 0.000001; 0.000002;,
         0.000000;-0.000002;-1.000000;,
        -0.000000; 0.000002; 1.000000;,
         0.000000; 1.000000; 0.000001;,
         0.000000; 1.000000;-0.000006;,
         0.000000; 0.000000; 0.000000;,
         0.000000; 0.000000;-1.000000;,
        -1.000000;-0.000001;-0.000001;,
         1.000000; 0.000001; 0.000002;,
         0.000000;-0.000002;-1.000000;,
        -0.000000; 0.000002; 1.000000;,
         0.000000; 1.000000; 0.000002;,
         0.000000; 1.000000;-0.000005;,
         0.000000; 0.000000; 0.000000;,
        -0.000001; 1.000000;-0.000002;,
        -1.000000;-0.000001;-0.000000;,
         1.000000; 0.000002; 0.000001;,
         0.000000;-0.000002;-1.000000;,
         0.000000;-0.000000; 1.000000;,
        -0.000000; 0.000000; 1.000000;,
        -0.000000; 0.000000; 1.000000;,
         0.000000; 0.000000; 1.000000;,
         0.000000; 0.000000; 1.000000;,
        -0.000000; 0.000000; 1.000000;;
        65;
        4;0,0,0,0;,
        4;1,1,1,1;,
        4;2,2,2,2;,
        4;3,3,3,3;,
        4;4,4,4,4;,
        4;5,5,5,5;,
        4;6,6,6,6;,
        4;7,7,7,7;,
        4;8,8,8,8;,
        4;9,9,9,9;,
        4;10,10,10,10;,
        4;11,11,11,11;,
        4;12,12,12,12;,
        4;13,13,13,13;,
        4;14,14,14,14;,
        4;15,15,15,15;,
        4;16,16,16,16;,
        4;17,17,17,17;,
        4;18,18,18,18;,
        4;19,19,19,19;,
        4;20,20,20,20;,
        4;21,21,21,21;,
        4;22,22,22,22;,
        4;23,23,23,23;,
        4;24,24,24,24;,
        4;25,25,25,25;,
        4;26,26,26,26;,
        4;27,27,27,27;,
        4;28,28,28,28;,
        4;29,29,29,29;,
        4;30,30,30,30;,
        4;31,31,31,31;,
        4;32,32,32,32;,
        4;33,33,33,33;,
        4;34,34,34,34;,
        4;35,35,35,35;,
        4;36,36,36,36;,
        4;37,37,37,37;,
        4;38,38,38,38;,
        4;39,39,39,39;,
        4;40,40,40,40;,
        4;41,41,41,41;,
        4;42,42,42,42;,
        4;43,43,43,43;,
        4;44,44,44,44;,
        4;45,45,45,45;,
        4;46,46,46,46;,
        4;47,47,47,47;,
        4;48,48,48,48;,
        4;49,49,49,49;,
        4;50,50,50,50;,
        4;51,51,51,51;,
        4;52,52,52,52;,
        4;53,53,53,53;,
        4;54,54,54,54;,
        4;55,55,55,55;,
        4;56,56,56,56;,
        4;57,57,57,57;,
        4;58,58,58,58;,
        4;59,59,59,59;,
        4;60,60,60,60;,
        4;61,61,61,61;,
        4;62,62,62,62;,
        4;63,63,63,63;,
        4;64,64,64,64;;
      } // End of Cube normals
      MeshMaterialList { // Cube material list
        2;
        65;
        0,
        0,
        0,
        0,
        0,
        0,
        0,
        0,
        0,
        0,
        0,
        0,
        0,
        0,
        0,
        0,
        0,
        0,
        0,
        0,
        0,
        0,
        0,
        0,
        0,
        0,
        0,
        0,
        0,
        0,
        0,
        0,
        0,
        0,
        0,
        0,
        0,
        0,
        0,
        0,
        0,
        0,
        0,
        0,
        0,
        0,
        0,
        0,
        0,
        0,
        0,
        0,
        0,
        0,
        0,
        0,
        0,
        0,
        0,
        1,
        1,
        0,
        0,
        0,
        0;;
        Material Material {
           0.640000; 0.238086; 0.164425; 1.000000;;
           96.078431;
           0.500000; 0.500000; 0.500000;;
           0.000000; 0.000000; 0.000000;;
        }
        Material Material_001 {
           0.165805; 0.640000; 0.167831; 1.000000;;
           96.078431;
           0.500000; 0.500000; 0.500000;;
           0.000000; 0.000000; 0.000000;;
        }
      } // End of Cube material list
    } // End of Cube mesh
  } // End of Cube
} // End of Root
